{
  "Id": "UnleashedLifepod",
  "DisplayName": "Unleashed Lifepod",
  "Author": "Oldark",
  "Version": "1.4.7",
  "Requires": [ ],
  "Enable": true,
  "AssemblyName": "UnleashedLifepod.dll",
  "EntryMethod": "Unleashed_Lifepod.MainPatcher.Patch",
  "Config": {}
}
