{
  "Id": "QuickSave",
  "DisplayName": "QuickSave",
  "Author": "Oldark",
  "Version": "0.1",
  "Requires": [ ],
  "Enable": true,
  "AssemblyName": "QuickSave.dll",
  "EntryMethod": "QuickSave.MainPatcher.Patch",
  "Config": {}
}