{
  "Id": "AcceleratedStart",
  "DisplayName": "Accelerated Start",
  "Author": "Oldark",
  "Version": "1.2.1",
  "Requires": [ ],
  "Enable": true,
  "AssemblyName": "AcceleratedStart.dll",
  "EntryMethod": "AcceleratedStart.MainPatcher.Patch",
  "Config": {}
}